…
```julia
julia> using Pkg

julia> Pkg.add("CSV")
```

为了读取文件，我们将使用`CSV.read`函数。

```jldoctest dataframe
julia> using CSV

julia> path = joinpath(pkgdir(DataFrames), "docs", "src", "assets", "german.csv");

julia> german_ref = CSV.read(path, DataFrame)
1000×10 DataFrame
  Row │ id     Age    Sex      Job    Housing  Saving accounts  Checking accou ⋯
      │ Int64  Int64  String7  Int64  String7  String15         String15       ⋯
──────┼─────────────────────────────────────────────────────────────────────────
    1 │     0     67  male         2  own      NA               little         ⋯
    2 │     1     22  female       2  own      little           moderate
    3 │     2     49  male         1  own      little           NA
    4 │     3     45  male         2  free     little           little
    5 │     4     53  male         2  free     little           little         ⋯
    6 │     5     35  male         1  free     NA               NA
    7 │     6     53  male         2  own      quite rich       NA
    8 │     7     35  male         3  rent     little           moderate
  ⋮   │   ⋮      ⋮       ⋮       ⋮       ⋮            ⋮                ⋮       ⋱
  994 │   993     30  male         3  own      little           little         ⋯
  995 │   994     50  male         2  own      NA               NA
  996 │   995     31  female       1  own      little           NA
  997 │   996     40  male         3  own      little           little
  998 │   997     38  male         2  own      little           NA             ⋯
  999 │   998     23  male         2  free     little           little
 1000 │   999     27  male         2  own      moderate         moderate
                                                  4 columns and 985 rows omitted
```
…
在我们结束之前，让我们讨论 `empty` 和 `empty!` 函数，这两个函数会从 `DataFrame` 中移除所有行。理解这两个函数行为的差异将帮助你理解 DataFrames.jl 中的函数命名方案。

让我们从使用 `empty` 和 `empty!` 函数的例子开始：

```jldoctest dataframe
julia> empty(german)
0×10 DataFrame
 Row │ id     Age    Sex      Job    Housing  Saving accounts  Checking accoun ⋯
     │ Int64  Int64  String7  Int64  String7  String15         String15        ⋯
─────┴──────────────────────────────────────────────────────────────────────────
                                                               4 columns omitted

julia> german
1000×10 DataFrame
  Row │ id     Age    Sex      Job    Housing  Saving accounts  Checking accou ⋯
      │ Int64  Int64  String7  Int64  String7  String15         String15       ⋯
──────┼─────────────────────────────────────────────────────────────────────────
    1 │     0     67  male         2  own      NA               little         ⋯
    2 │     1     22  female       2  own      little           moderate
    3 │     2     49  male         1  own      little           NA
    4 │     3     45  male         2  free     little           little
    5 │     4     53  male         2  free     little           little         ⋯
    6 │     5     35  male         1  free     NA               NA
    7 │     6     53  male         2  own      quite rich       NA
    8 │     7     35  male         3  rent     little           moderate
  ⋮   │   ⋮      ⋮       ⋮       ⋮       ⋮            ⋮                ⋮       ⋱
  994 │   993     30  male         3  own      little           little         ⋯
  995 │   994     50  male         2  own      NA               NA
  996 │   995     31  female       1  own      little           NA
  997 │   996     40  male         3  own      little           little
  998 │   997     38  male         2  own      little           NA             ⋯
  999 │   998     23  male         2  free     little           little
 1000 │   999     27  male         2  own      moderate         moderate
                                                  4 columns and 985 rows omitted
…
默认报告的统计量是平均值、最小值、中位数、最大值、缺失值的数量以及列的元素类型。在计算摘要统计时，会跳过`missing`值。

你可以通过手动调用`show`函数来调整数据框的显示方式：`show(german, allrows=true)`会打印所有行，即使它们无法在屏幕上显示，`show(german, allcols=true)`对列也会做同样的处理，例如：

```jldoctest dataframe
julia> show(german, allcols=true)
1000×10 DataFrame
  Row │ id     Age    Sex      Job    Housing  Saving accounts  Checking account  Credit amount  Duration  Purpose
      │ Int64  Int64  String7  Int64  String7  String15         String15          Int64          Int64     String31
──────┼────────────────────────────────────────────────────────────────────────────────────────────────────────────────────────
    1 │     0     67  male         2  own      NA               little                     1169         6  radio/TV
    2 │     1     22  female       2  own      little           moderate                   5951        48  radio/TV
    3 │     2     49  male         1  own      little           NA                         2096        12  education
    4 │     3     45  male         2  free     little           little                     7882        42  furniture/equipment
    5 │     4     53  male         2  free     little           little                     4870        24  car
    6 │     5     35  male         1  free     NA               NA                         9055        36  education
    7 │     6     53  male         2  own      quite rich       NA                         2835        24  furniture/equipment
    8 │     7     35  male         3  rent     little           moderate                   6948        36  car
  ⋮   │   ⋮      ⋮       ⋮       ⋮       ⋮            ⋮                ⋮                ⋮           ⋮               ⋮
  994 │   993     30  male         3  own      little           little                     3959        36  furniture/equipment
  995 │   994     50  male         2  own      NA               NA                         2390        12  car
  996 │   995     31  female       1  own      little           NA                         1736        12  furniture/equipment
  997 │   996     40  male         3  own      little           little                     3857        30  car
  998 │   997     38  male         2  own      little           NA                          804        12  radio/TV
  999 │   998     23  male         2  free     little           little                     1845        45  radio/TV
 1000 │   999     27  male         2  own      moderate         moderate                   4576        45  car
                                                                                                               985 rows omitted
```

直接在单个列上计算描述性统计量非常容易，只需使用在`Statistics`模块中定义的函数：

```jldoctest dataframe
julia> using Statistics

julia> mean(german.Age)
35.546
```

如果我们想对数据框的所有列应用某个函数，我们可以使用`mapcols`函数。它返回一个`DataFrame`，其中源数据框的每一列都通过第一个参数传递的函数进行转换。请注意，`mapcols`保证不会在返回的`DataFrame`中重用`german`的列。如果转换返回其参数，那么在存储之前会先复制它。

```jldoctest dataframe
julia> mapcols(id -> id .^ 2, german)
1000×10 DataFrame
  Row │ id      Age    Sex           Job    Housing   Saving accounts       Ch ⋯
      │ Int64   Int64  String        Int64  String    String                St ⋯
──────┼─────────────────────────────────────────────────────────────────────────
    1 │      0   4489  malemale          4  ownown    NANA                  li ⋯
    2 │      1    484  femalefemale      4  ownown    littlelittle          mo
    3 │      4   2401  malemale          1  ownown    littlelittle          NA
    4 │      9   2025  malemale          4  freefree  littlelittle          li
    5 │     16   2809  malemale          4  freefree  littlelittle          li ⋯
    6 │     25   1225  malemale          1  freefree  NANA                  NA
    7 │     36   2809  malemale          4  ownown    quite richquite rich  NA
    8 │     49   1225  malemale          9  rentrent  littlelittle          mo
  ⋮   │   ⋮       ⋮         ⋮          ⋮       ⋮               ⋮               ⋱
  994 │ 986049    900  malemale          9  ownown    littlelittle          li ⋯
  995 │ 988036   2500  malemale          4  ownown    NANA                  NA
  996 │ 990025    961  femalefemale      1  ownown    littlelittle          NA
  997 │ 992016   1600  malemale          9  ownown    littlelittle          li
  998 │ 994009   1444  malemale          4  ownown    littlelittle          NA ⋯
  999 │ 996004    529  malemale          4  freefree  littlelittle          li
 1000 │ 998001    729  malemale          4  ownown    moderatemoderate      mo
                                                  4 columns and 985 rows omitted
```
…
julia> german[[1, 6, 15], :]
3×10 DataFrame
 Row │ id     Age    Sex      Job    Housing  Saving accounts  Checking accoun ⋯
     │ Int64  Int64  String7  Int64  String7  String15         String15        ⋯
─────┼──────────────────────────────────────────────────────────────────────────
   1 │     0     67  male         2  own      NA               little          ⋯
   2 │     5     35  male         1  free     NA               NA
   3 │    14     28  female       2  rent     little           little
                                                               4 columns omitted

julia> german[:, [:Age, :Sex]]
1000×2 DataFrame
  Row │ Age    Sex
      │ Int64  String7
──────┼────────────────
    1 │    67  male
    2 │    22  female
    3 │    49  male
    4 │    45  male
    5 │    53  male
    6 │    35  male
    7 │    53  male
    8 │    35  male
  ⋮   │   ⋮       ⋮
  994 │    30  male
  995 │    50  male
  996 │    31  female
  997 │    40  male
  998 │    38  male
  999 │    23  male
 1000 │    27  male
       985 rows omitted
```

注意，`german[!, [:Sex]]`和`german[:, [:Sex]]`返回的是一个数据框对象，而`german[!, :Sex]`和`german[:, :Sex]`返回的是一个向量。在第一种情况下，`[:Sex]`是一个向量，表示结果对象应该是一个数据框。另一方面，`:Sex`是一个单独的`Symbol`，表示应该提取一个单独的列向量。注意，第一种情况需要传递一个向量（不仅仅是任何可迭代的对象），所以例如`german[:, (:Age, :Sex)]`是不允许的，但`german[:, [:Age, :Sex]]`是有效的。下面我们展示这两种操作以强调这个区别：

```jldoctest dataframe
julia> german[!, [:Sex]]
1000×1 DataFrame
  Row │ Sex
      │ String7
──────┼─────────
    1 │ male
    2 │ female
    3 │ male
    4 │ male
    5 │ male
    6 │ male
    7 │ male
    8 │ male
  ⋮   │    ⋮
  994 │ male
  995 │ male
  996 │ female
  997 │ male
  998 │ male
  999 │ male
 1000 │ male
985 rows omitted
…
如果你想获取数据框的单个单元格，使用与获取矩阵单元格相同的语法：

```jldoctest dataframe
julia> german[4, 4]
2
```

### 视图

我们也可以创建一个数据帧的`view`。它通常非常有用，因为它比创建实体化的选择更节省内存。你可以使用`view`函数来创建：

```jldoctest dataframe
julia> view(german, :, 2:5)
1000×4 SubDataFrame
  Row │ Age    Sex      Job    Housing
      │ Int64  String7  Int64  String7
──────┼────────────────────────────────
    1 │    67  male         2  own
    2 │    22  female       2  own
    3 │    49  male         1  own
    4 │    45  male         2  free
    5 │    53  male         2  free
    6 │    35  male         1  free
    7 │    53  male         2  own
    8 │    35  male         3  rent
  ⋮   │   ⋮       ⋮       ⋮       ⋮
  994 │    30  male         3  own
  995 │    50  male         2  own
  996 │    31  female       1  own
  997 │    40  male         3  own
  998 │    38  male         2  own
  999 │    23  male         2  free
 1000 │    27  male         2  own
                       985 rows omitted
```

或者使用`@view`宏：

```jldoctest dataframe
julia> @view german[end:-1:1, [1, 4]]
1000×2 SubDataFrame
  Row │ id     Job
      │ Int64  Int64
──────┼──────────────
    1 │   999      2
    2 │   998      2
    3 │   997      2
    4 │   996      3
    5 │   995      1
    6 │   994      2
    7 │   993      3
    8 │   992      1
  ⋮   │   ⋮      ⋮
  994 │     6      2
  995 │     5      1
  996 │     4      2
  997 │     3      2
  998 │     2      1
  999 │     1      2
 1000 │     0      2
     985 rows omitted
```
…
在更复杂的列选择场景中，您可以使用`Not`、`Between`、`Cols`和`All`选择器：
- `Not`选择器（来自[InvertedIndices.jl](https://github.com/mbauman/InvertedIndices.jl)包）允许我们指定要从结果数据框中排除的列。我们可以在`Not`内部放置任何有效的其他列选择器；
- `Between`选择器允许我们指定一系列列（我们可以使用任何单列选择器语法传递起始和停止列）；
- `Cols(...)`选择器选择作为其参数传递的其他选择器的并集；
- `All()`允许我们选择`DataFrame`的所有列；这与传递`:`是相同的；
- 使用正则表达式选择与其名称匹配的列。

让我们给出一些这些选择器的示例。

删除`:Age`列：

```jldoctest dataframe
julia> german[:, Not(:Age)]
1000×9 DataFrame
  Row │ id     Sex      Job    Housing  Saving accounts  Checking account  Cre ⋯
      │ Int64  String7  Int64  String7  String15         String15          Int ⋯
──────┼─────────────────────────────────────────────────────────────────────────
    1 │     0  male         2  own      NA               little                ⋯
    2 │     1  female       2  own      little           moderate
    3 │     2  male         1  own      little           NA
    4 │     3  male         2  free     little           little
    5 │     4  male         2  free     little           little                ⋯
    6 │     5  male         1  free     NA               NA
    7 │     6  male         2  own      quite rich       NA
    8 │     7  male         3  rent     little           moderate
  ⋮   │   ⋮       ⋮       ⋮       ⋮            ⋮                ⋮              ⋱
  994 │   993  male         3  own      little           little                ⋯
  995 │   994  male         2  own      NA               NA
  996 │   995  female       1  own      little           NA
  997 │   996  male         3  own      little           little
  998 │   997  male         2  own      little           NA                    ⋯
  999 │   998  male         2  free     little           little
 1000 │   999  male         2  own      moderate         moderate
                                                  3 columns and 985 rows omitted
```

选择从`:Sex`到`:Housing`的列：

```
julia> german[:, Between(:Sex, :Housing)]
1000×3 DataFrame
  Row │ Sex     Job    Housing
      │ String  Int64  String
──────┼────────────────────────
    1 │ male        2  own
    2 │ female      2  own
    3 │ male        1  own
    4 │ male        2  free
    5 │ male        2  free
    6 │ male        1  free
    7 │ male        2  own
    8 │ male        3  rent
  ⋮   │   ⋮       ⋮       ⋮
  994 │ male        3  own
  995 │ male        2  own
  996 │ female      1  own
  997 │ male        3  own
  998 │ male        2  own
  999 │ male        2  free
 1000 │ male        2  own
               985 rows omitted
```

在下面的示例中，`Cols`选择器选择作为其参数传递的`"Age"`和`Between("Sex", "Job")`选择器的并集：

```jldoctest dataframe
julia> german[:, Cols("Age", Between("Sex", "Job"))]
1000×3 DataFrame
  Row │ Age    Sex      Job
      │ Int64  String7  Int64
──────┼───────────────────────
    1 │    67  male         2
    2 │    22  female       2
    3 │    49  male         1
    4 │    45  male         2
    5 │    53  male         2
    6 │    35  male         1
    7 │    53  male         2
    8 │    35  male         3
  ⋮   │   ⋮       ⋮       ⋮
  994 │    30  male         3
  995 │    50  male         2
  996 │    31  female       1
  997 │    40  male         3
  998 │    38  male         2
  999 │    23  male         2
 1000 │    27  male         2
              985 rows omitted
```

您还可以使用正则表达式`Regex`来选择列。在下面的示例中，我们选择具有其名称中包含`"S"`的列，并使用`Not`来删除第5行：

```jldoctest dataframe
julia> german[Not(5), r"S"]
999×2 DataFrame
 Row │ Sex      Saving accounts
     │ String7  String15
─────┼──────────────────────────
   1 │ male     NA
   2 │ female   little
   3 │ male     little
   4 │ male     little
   5 │ male     NA
   6 │ male     quite rich
   7 │ male     little
   8 │ male     rich
  ⋮  │    ⋮            ⋮
 993 │ male     little
 994 │ male     NA
 995 │ female   little
 996 │ male     little
 997 │ male     little
 998 │ male     little
 999 │ male     moderate
                984 rows omitted
```
…
让我们来看一些应用这些规则的示例。

```jldoctest dataframe
julia> using Statistics

julia> combine(german, :Age => mean => :mean_age)
1×1 DataFrame
 Row │ mean_age
     │ Float64
─────┼──────────
   1 │   35.546

julia> select(german, :Age => mean => :mean_age)
1000×1 DataFrame
  Row │ mean_age
      │ Float64
──────┼──────────
    1 │   35.546
    2 │   35.546
    3 │   35.546
    4 │   35.546
    5 │   35.546
    6 │   35.546
    7 │   35.546
    8 │   35.546
  ⋮   │    ⋮
  994 │   35.546
  995 │   35.546
  996 │   35.546
  997 │   35.546
  998 │   35.546
  999 │   35.546
 1000 │   35.546
 985 rows omitted
```
…
请注意，不允许在不同的转换中返回长度不同的向量：

```jldoctest dataframe
julia> combine(german, :Age, :Housing => unique => :Housing)
ERROR: ArgumentError: New columns must have the same length as old columns
```

让我们使用`select`讨论一些其他示例。通常，我们希望将某个函数应用于数据帧的整个列，而不是其各个元素。通常，我们可以使用广播来实现这一点，如下所示：

```jldoctest dataframe
julia> select(german, :Sex => (x -> uppercase.(x)) => :Sex)
1000×1 DataFrame
  Row │ Sex
      │ String
──────┼────────
    1 │ MALE
    2 │ FEMALE
    3 │ MALE
    4 │ MALE
    5 │ MALE
    6 │ MALE
    7 │ MALE
    8 │ MALE
  ⋮   │   ⋮
  994 │ MALE
  995 │ MALE
  996 │ FEMALE
  997 │ MALE
  998 │ MALE
  999 │ MALE
 1000 │ MALE
985 rows omitted
```

这种模式在实践中经常遇到，因此有一个`ByRow`的便捷包装器，用于创建广播变体的函数。在这些示例中，`ByRow`是一种特殊类型，用于选择操作，以表示应将包装的函数应用于选择的每个元素（行）。在这里，我们使用`uppercase`函数将`ByRow`包装器传递给目标列名`:Sex`：

```jldoctest dataframe
julia> select(german, :Sex => ByRow(uppercase) => :SEX)
1000×1 DataFrame
  Row │ SEX
      │ String
──────┼────────
    1 │ MALE
    2 │ FEMALE
    3 │ MALE
    4 │ MALE
    5 │ MALE
    6 │ MALE
    7 │ MALE
    8 │ MALE
  ⋮   │   ⋮
  994 │ MALE
  995 │ MALE
  996 │ FEMALE
  997 │ MALE
  998 │ MALE
  999 │ MALE
 1000 │ MALE
985 rows omitted
```

在这种情况下，我们使用`ByRow`包装器来转换源列`:Age`，并自动生成目标列名：

```jldoctest dataframe
julia> select(german, :Age, :Age => ByRow(sqrt))
1000×2 DataFrame
  Row │ Age    Age_sqrt
      │ Int64  Float64
──────┼─────────────────
    1 │    67   8.18535
    2 │    22   4.69042
    3 │    49   7.0
    4 │    45   6.7082
    5 │    53   7.28011
    6 │    35   5.91608
    7 │    53   7.28011
    8 │    35   5.91608
  ⋮   │   ⋮       ⋮
  994 │    30   5.47723
  995 │    50   7.07107
  996 │    31   5.56776
  997 │    40   6.32456
  998 │    38   6.16441
  999 │    23   4.79583
 1000 │    27   5.19615
        985 rows omitted
```

当我们只传递一个列（不包括`=>`部分）时，我们可以使用在索引中允许的任何列选择器。

在这里，我们从结果数据框中排除列`:Age`：

```jldoctest dataframe
julia> select(german, Not(:Age))
1000×9 DataFrame
  Row │ id     Sex      Job    Housing  Saving accounts  Checking account  Cre ⋯
      │ Int64  String7  Int64  String7  String15         String15          Int ⋯
──────┼─────────────────────────────────────────────────────────────────────────
    1 │     0  male         2  own      NA               little                ⋯
    2 │     1  female       2  own      little           moderate
    3 │     2  male         1  own      little           NA
    4 │     3  male         2  free     little           little
    5 │     4  male         2  free     little           little                ⋯
    6 │     5  male         1  free     NA               NA
    7 │     6  male         2  own      quite rich       NA
    8 │     7  male         3  rent     little           moderate
  ⋮   │   ⋮       ⋮       ⋮       ⋮            ⋮                ⋮              ⋱
  994 │   993  male         3  own      little           little                ⋯
  995 │   994  male         2  own      NA               NA
  996 │   995  female       1  own      little           NA
  997 │   996  male         3  own      little           little
  998 │   997  male         2  own      little           NA                    ⋯
  999 │   998  male         2  free     little           little
 1000 │   999  male         2  own      moderate         moderate
                                                  3 columns and 985 rows omitted
```
…
